"VertexlitGeneric"
{
	"$basetexture" "models/tardisman/coral_9th/walls"
	"$surfaceprop" "Glass"
	"$nodecal" "1"
	"$selfillum" 1
	"$selfillummask" "models/tardisman/coral_9th/white"
	"$selfillumtint" "[ 4 2.6 1.27 ]"
	"$color2" "[0.5 0.5 0.5]"
}
