"VertexlitGeneric"
{
	"$basetexture" "models/doctorwho1200/coral/rustymetal"
	"$bumpmap" "models/tardisman/coral_9th/metal_normal"
	"$nodecal"				"1"
	"$model"				"1"
	"$color2"				"[0.7 0.7 0.7]"

	"$detail"				"models/tardisman/coral_9th/rust_detail"
	"$detailscale"			"1"
	"$detailblendfactor"	"1"
	"$detailblendmode"		"0"

	"$phong"				"1"
	"$phongexponent"		"30"
	"$phongboost"			"0.5"
	"$phongfresnelranges"	"[0.05 0.5 1]"

	"$rimlight"				"1"
	"$rimlightexponent"		"2"
	"$rimlightboost"		"0.1"

	"$surfaceprop" "Metal"
}
