"VertexlitGeneric"
{
	"$basetexture"			"models/tardisman/coral_10th/columns"
	"$bumpmap"				"models/tardisman/coral_10th/columns_n"
	"$nodecal"				"1"
	"$model"				"1"

	"$detail"				"detail/plaster_detail_01"
	"$detailscale"			"6"
	"$detailblendfactor"	"0.8"
	"$detailblendmode"		"0"

	"$phong"                                                 "1"
	"$phongexponent"			"4"
	"$phongboost"				"0.5"
	"$phongfresnelranges"		"[0.05 0.1 1]"

	"$surfaceprop"			"plastic"

//	"$color2"	"[1 0.9 0.9]"
}
