"VertexlitGeneric"
{
	"$basetexture" "models/tardisman/coral_10th/walls"
	"$surfaceprop" "Glass"
	"$nodecal" "1"
	"$selfillum" 1
	"$selfillummask" "models/tardisman/coral_10th/white"
	"$selfillumtint" "[ 1.7 1.8 2 ]"
}
