"VertexlitGeneric"
{
	"$basetexture" "models/tardisman/coral_10th/stuff"
	"$bumpmap" "models/tardisman/coral_10th/metal_normal"
	"$nodecal"				"1"
	"$model"				"1"

	"$phong"				"1"
	"$phongexponent"		"30"
	"$phongboost"			"2"
	"$phongfresnelranges"	"[0.05 0.5 1]"

	"$rimlight"				"1"
	"$rimlightexponent"		"2"
	"$rimlightboost"		"0.1"

	"$surfaceprop" "Metal"
	"$envmap" "models/tardisman/coral_10th/metal_env"
	"$envmaptint" "[ 0.15 0.15 0.15 ]"
}
